<?xml version="1.0" encoding="utf-8"?>
<!-- Generator: Adobe Illustrator 17.1.0, SVG Export Plug-In . SVG Version: 6.00 Build 0)  -->
<!DOCTYPE svg PUBLIC "-//W3C//DTD SVG 1.1 Basic//EN" "http://www.w3.org/Graphics/SVG/1.1/DTD/svg11-basic.dtd">
<svg version="1.1" baseProfile="basic" id="_x38_8" xmlns="http://www.w3.org/2000/svg" xmlns:xlink="http://www.w3.org/1999/xlink"
	 x="0px" y="0px" viewBox="0 0 44 44" xml:space="preserve">
<path id="love" fill="#FBB040" d="M22,30c-0.3,0-0.6-0.1-0.8-0.3c0,0-4.9-4.8-6.7-6.6c-1.6-1.6-2.1-3.7-1.4-5.7
	c0.7-1.9,2.4-3.1,4.6-3.3c0.2,0,0.4,0,0.6,0c1.8,0,3,0.7,3.7,1.6c0.8-0.9,1.9-1.6,3.7-1.6c0.2,0,0.4,0,0.6,0
	c2.2,0.2,3.9,1.4,4.6,3.3c0.7,1.9,0.2,4.1-1.4,5.7c-1.8,1.8-6.6,6.6-6.7,6.6C22.6,29.9,22.3,30,22,30z M18.3,16.3
	c-0.1,0-0.2,0-0.4,0c-1.3,0.1-2.3,0.8-2.7,1.9c-0.4,1.1-0.1,2.4,0.9,3.3c1.4,1.4,4.4,4.4,5.9,5.8c1.5-1.4,4.5-4.5,5.9-5.8
	c0.9-0.9,1.3-2.2,0.9-3.3c-0.4-1.1-1.4-1.7-2.6-1.9c-0.1,0-0.3,0-0.4,0c-2.3,0-2.6,2-2.6,2.2c-0.1,0.6-0.5,1-1.1,1l0,0
	c-0.6,0-1.1-0.4-1.1-1C20.8,18.1,20.5,16.3,18.3,16.3z"/>
</svg>
